%YAML 1.1
%TAG !u! tag:unity3d.com,2011:
--- !u!1045 &1
EditorBuildSettings:
  m_ObjectHideFlags: 0
  serializedVersion: 2
  m_Scenes:
  - enabled: 1
    path: Assets/Scene/Menu.unity
    guid: 7619a1de40828ad4285cec0341d95e72
  - enabled: 1
    path: Assets/Scene/Scene 2.unity
    guid: cc7578be635289e48800fd2ad932e261
  - enabled: 1
    path: Assets/Scene/Scene 1.unity
    guid: 2d0f2afdef5e0f5479aa032d33e5496e
  - enabled: 1
    path: Assets/Scene/Scene3.unity
    guid: 4c50de6fe21f1774db2f7cb6ba849540
  m_configObjects: {}
