%YAML 1.1
%TAG !u! tag:unity3d.com,2011:
--- !u!1001 &5186605031073341595
PrefabInstance:
  m_ObjectHideFlags: 0
  serializedVersion: 2
  m_Modification:
    m_TransformParent: {fileID: 0}
    m_Modifications:
    - target: {fileID: 5640006092313193656, guid: 4fe4a1905e2adda4385e85cd033fa441,
        type: 3}
      propertyPath: m_LocalPosition.x
      value: -27.437775
      objectReference: {fileID: 0}
    - target: {fileID: 5640006092313193656, guid: 4fe4a1905e2adda4385e85cd033fa441,
        type: 3}
      propertyPath: m_LocalPosition.y
      value: 3.4173052
      objectReference: {fileID: 0}
    - target: {fileID: 5640006092313193656, guid: 4fe4a1905e2adda4385e85cd033fa441,
        type: 3}
      propertyPath: m_LocalPosition.z
      value: 12.167592
      objectReference: {fileID: 0}
    - target: {fileID: 5640006092313193656, guid: 4fe4a1905e2adda4385e85cd033fa441,
        type: 3}
      propertyPath: m_LocalRotation.x
      value: -0
      objectReference: {fileID: 0}
    - target: {fileID: 5640006092313193656, guid: 4fe4a1905e2adda4385e85cd033fa441,
        type: 3}
      propertyPath: m_LocalRotation.y
      value: -0
      objectReference: {fileID: 0}
    - target: {fileID: 5640006092313193656, guid: 4fe4a1905e2adda4385e85cd033fa441,
        type: 3}
      propertyPath: m_LocalRotation.z
      value: -0
      objectReference: {fileID: 0}
    - target: {fileID: 5640006092313193656, guid: 4fe4a1905e2adda4385e85cd033fa441,
        type: 3}
      propertyPath: m_LocalRotation.w
      value: 1
      objectReference: {fileID: 0}
    - target: {fileID: 5640006092313193656, guid: 4fe4a1905e2adda4385e85cd033fa441,
        type: 3}
      propertyPath: m_RootOrder
      value: 0
      objectReference: {fileID: 0}
    - target: {fileID: 5640006092313193656, guid: 4fe4a1905e2adda4385e85cd033fa441,
        type: 3}
      propertyPath: m_LocalEulerAnglesHint.x
      value: 0
      objectReference: {fileID: 0}
    - target: {fileID: 5640006092313193656, guid: 4fe4a1905e2adda4385e85cd033fa441,
        type: 3}
      propertyPath: m_LocalEulerAnglesHint.y
      value: 0
      objectReference: {fileID: 0}
    - target: {fileID: 5640006092313193656, guid: 4fe4a1905e2adda4385e85cd033fa441,
        type: 3}
      propertyPath: m_LocalEulerAnglesHint.z
      value: 0
      objectReference: {fileID: 0}
    - target: {fileID: 5640006092313193656, guid: 4fe4a1905e2adda4385e85cd033fa441,
        type: 3}
      propertyPath: m_LocalScale.x
      value: 10
      objectReference: {fileID: 0}
    - target: {fileID: 5640006092313193656, guid: 4fe4a1905e2adda4385e85cd033fa441,
        type: 3}
      propertyPath: m_LocalScale.z
      value: 50
      objectReference: {fileID: 0}
    - target: {fileID: 5640006092313193657, guid: 4fe4a1905e2adda4385e85cd033fa441,
        type: 3}
      propertyPath: m_Name
      value: Ground
      objectReference: {fileID: 0}
    m_RemovedComponents: []
  m_SourcePrefab: {fileID: 100100000, guid: 4fe4a1905e2adda4385e85cd033fa441, type: 3}
